<!-- Generated by IcoMoon.io -->
<svg version="1.1" fill="#fff" xmlns="http://www.w3.org/2000/svg" width="512" height="512" viewBox="0 0 512 512">
<title></title>
<g id="icomoon-ignore">
</g>
<path d="M512 0v208l-80-80-96 96-48-48 96-96-80-80zM224 336l-96 96 80 80h-208v-208l80 80 96-96z"></path>
</svg>
